<svg xmlns="http://www.w3.org/2000/svg" width="202" height="92" viewBox="0 0 202 92">
  <g id="Group_233" data-name="Group 233" transform="translate(1 1)">
    <g id="Rectangle_26" data-name="Rectangle 26" fill="#fff" stroke="#ccc" stroke-width="1">
      <rect width="200" height="90" rx="3" stroke="none"/>
      <rect x="-0.5" y="-0.5" width="201" height="91" rx="3.5" fill="none"/>
    </g>
    <g id="Group_123" data-name="Group 123" transform="translate(40 24)">
      <rect id="Rectangle_258" data-name="Rectangle 258" width="3.417" height="12.281" transform="translate(59.441 16.927)" fill="#b2b2b2"/>
      <g id="Group_121" data-name="Group 121">
        <path id="Path_50" data-name="Path 50" d="M35.072,402.3v7.783H44.3v-2.641l3.417.6v1.452c0,2.307-.883,2.9-3.645,2.9H35.3c-2.763,0-3.646-.6-3.646-2.9V403.01c0-2.307.883-2.9,3.646-2.9h8.772c2.762,0,3.645.594,3.645,2.9v1.168l-3.417.451V402.3Z" transform="translate(-31.654 -383.181)" fill="#343262"/>
        <path id="Path_51" data-name="Path 51" d="M193.288,403.009v6.476c0,2.307.883,2.9,3.645,2.9h10.824c2.763,0,3.645-.6,3.645-2.9v-6.476c0-2.307-.881-2.9-3.645-2.9H196.933c-2.762,0-3.645.594-3.645,2.9m3.419-.713h11.279v7.783H196.707Z" transform="translate(-174.747 -383.18)" fill="#343262"/>
        <path id="Path_52" data-name="Path 52" d="M376.777,412.388h8.572c2.62,0,4.615-.215,6.039-.953a5.742,5.742,0,0,0,3.246-5.261c0-3.806-2.905-6.067-8.4-6.067h-9.456Zm3.418-2.309V402.3h6.066c3.219,0,4.843,1.334,4.843,3.831,0,3.047-2.165,3.952-6.494,3.952Z" transform="translate(-337.188 -383.18)" fill="#343262"/>
        <path id="Path_53" data-name="Path 53" d="M607.929,412.386h3.361V407.6h9.228c2.251,0,3.3-.668,3.3-2.381v-2.736c0-1.714-1.053-2.38-3.3-2.38H607.929Zm11.051-10.162c1.054,0,1.538.165,1.538.975v1.309c0,.809-.485.976-1.538.976h-7.69v-3.259Z" transform="translate(-541.825 -383.178)" fill="#343262"/>
        <path id="Path_54" data-name="Path 54" d="M760.693,412.386h3.362v-4.642H767.3l5.925,4.642h4.9l-6.778-4.642h1.938c2.248,0,3.3-.665,3.3-2.38v-2.879c0-1.714-1.055-2.38-3.3-2.38H760.693Zm11.052-10.162c1.053,0,1.538.165,1.538.975v1.477c0,.808-.485.976-1.538.976h-7.691v-3.427Z" transform="translate(-677.065 -383.178)" fill="#343262"/>
        <path id="Path_55" data-name="Path 55" d="M919.86,403.009v6.476c0,2.307.882,2.9,3.644,2.9h10.823c2.764,0,3.647-.6,3.647-2.9v-6.476c0-2.307-.883-2.9-3.647-2.9H923.5c-2.762,0-3.644.594-3.644,2.9m3.417-.713h11.28v7.783h-11.28Z" transform="translate(-817.974 -383.18)" fill="#343262"/>
        <path id="Path_56" data-name="Path 56" d="M525.3,257.354a28.087,28.087,0,0,1-.558,3.608,1.082,1.082,0,0,1-1.117.745h-1.536a1.082,1.082,0,0,1-1.117-.745,28.034,28.034,0,0,1-.558-3.608c-.26-2.456,2.334-2.531,2.334-2.531h.217s2.594.075,2.334,2.531m2.849,8.818V265a7.456,7.456,0,0,0-.255-1.552,36.828,36.828,0,0,1-.786-5.188c-.149-2.445-.617-5.592-4.359-5.72-3.742.128-4.21,3.274-4.359,5.72a36.817,36.817,0,0,1-.786,5.188,7.42,7.42,0,0,0-.255,1.552v1.169s-.426,1.68,1.488,1.573l1.192.005v-1.812l-.181-.181.052-1.074,1.658-2h2.372l1.659,2,.053,1.074-.182.181.008,1.812,1.193-.005c1.913.106,1.488-1.573,1.488-1.573" transform="translate(-461.595 -252.543)" fill="#9c1920"/>
        <path id="Path_57" data-name="Path 57" d="M548,346.8v-1.258h-.259l-.13-.4-1-.568v-.38l-.448-.292h-1.44l-.448.292v.38l-1,.568v.4h-.259V346.8h.108v1.844h-.108v.819a6.28,6.28,0,0,0,1.086.251,24.632,24.632,0,0,0,2.68,0,9.51,9.51,0,0,0,1.216-.251v-.819h-.108V346.8Z" transform="translate(-484.361 -333.426)" fill="#b2b2b2"/>
        <path id="Path_58" data-name="Path 58" d="M427.392,283.885a.67.67,0,0,1-.141-.015c-5.4-1.233-8.755-3.744-8.755-6.55,0-2.833,3.242-5.275,8.673-6.532.341-.08.374.116.034.195-4.674,1.082-7.443,4.2-7.443,6.337s3.05,4.239,7.771,5.317a.632.632,0,0,1-.14,1.249" transform="translate(-374.122 -268.678)" fill="#9e9cbc"/>
        <path id="Path_59" data-name="Path 59" d="M628.547,270.77a.644.644,0,0,1,.141.015c5.4,1.233,8.754,3.742,8.754,6.55,0,2.832-3.242,5.274-8.673,6.532-.341.079-.375-.116-.034-.195,4.673-1.082,7.443-4.2,7.443-6.337s-3.05-4.239-7.771-5.317a.633.633,0,0,1,.14-1.249" transform="translate(-559.518 -268.679)" fill="#9e9cbc"/>
        <path id="Path_60" data-name="Path 60" d="M859.781,560.7h6.282v-1.182h-4.951v-5.642h-1.331Zm7.388,0H868.5v-6.825h-1.333Zm3.032,0h1.335v-2.646H874c1.155,0,3.051,0,3.051-2.084s-1.9-2.1-3.051-2.1h-3.8Zm1.335-3.791v-1.888H874.3c.761,0,1.427.067,1.427.939s-.666.949-1.427.949Zm7.745,1.078,1.428-3.04,1.426,3.04Zm-2.695,2.713h1.419l.723-1.568h3.933l.713,1.568h1.408l-3.313-6.825h-1.521Z" transform="translate(-764.787 -519.311)" fill="#343262"/>
        <path id="Path_61" data-name="Path 61" d="M859.869,531.665v.222h.5c-.065.2-.218.3-.492.3a.5.5,0,1,1,.024-1c.326,0,.4.167.433.239h.284c-.068-.357-.424-.477-.75-.477a.745.745,0,1,0,.008,1.486.861.861,0,0,0,.528-.165l.055.146h.168v-.744Zm4.613-.059v-.4h.533c.226,0,.34.035.34.2s-.114.2-.34.2Zm-.277.786h.277v-.558h.438l.41.558h.342l-.435-.576a.4.4,0,0,0,.4-.417c0-.345-.243-.422-.578-.422h-.85Zm5.793-.2c-.265,0-.567-.109-.567-.511,0-.341.243-.5.567-.5s.566.159.566.5c0,.4-.3.511-.566.511m-.844-.494a.852.852,0,0,0,1.687,0c0-.389-.22-.755-.843-.755s-.844.366-.844.755m6.744-.719h-.277v.788c0,.233-.084.425-.475.425s-.475-.192-.475-.425v-.788h-.278v.807c0,.454.292.643.753.643s.752-.19.752-.643Zm3.645,1.415h.278v-.549h.511c.24,0,.633,0,.633-.433s-.393-.433-.633-.433h-.789Zm.278-.786v-.392h.573c.157,0,.3.013.3.2s-.139.2-.3.2Z" transform="translate(-764.159 -499.007)" fill="#343262"/>
      </g>
      <path id="Path_62" data-name="Path 62" d="M790.448,549.607,788.4,545.24l-2.05,4.367Z" transform="translate(-699.778 -511.665)" fill="#343262"/>
      <g id="Group_122" data-name="Group 122" transform="translate(83.233 32.228)">
        <path id="Path_63" data-name="Path 63" d="M818.243,541.1a5.354,5.354,0,0,0-3.628-7.469Z" transform="translate(-808.035 -533.615)" fill="#343262"/>
        <path id="Path_64" data-name="Path 64" d="M761.455,533.495a5.354,5.354,0,0,0-3.694,7.5Z" transform="translate(-757.254 -533.495)" fill="#343262"/>
        <path id="Path_65" data-name="Path 65" d="M778.688,597.669h-5.651l-.825,1.79a5.35,5.35,0,0,0,7.287-.011Z" transform="translate(-770.496 -590.308)" fill="#343262"/>
      </g>
    </g>
  </g>
</svg>
