<svg xmlns="http://www.w3.org/2000/svg" width="26" height="26" viewBox="0 0 26 26">
  <g id="Group_96" data-name="Group 96" transform="translate(-244 -138)">
    <rect id="Rectangle_235" data-name="Rectangle 235" width="26" height="26" transform="translate(244 138)" fill="rgba(255,255,255,0)"/>
    <path id="Path_1" data-name="Path 1" d="M3106.946,2498h8.169l-4.273,3.943Z" transform="translate(-2853.946 -2349)" fill="#fff"/>
  </g>
</svg>
