<svg id="Profile" xmlns="http://www.w3.org/2000/svg" width="26" height="26" viewBox="0 0 26 26">
  <circle id="Ellipse_96" data-name="Ellipse 96" cx="13" cy="13" r="13" fill="#363260" opacity="0.2"/>
  <g id="Symbol_6_1" data-name="Symbol 6 – 1" transform="translate(9.286 9.286)">
    <g id="Union_1" data-name="Union 1" transform="translate(0 0)">
      <circle id="Ellipse_3" data-name="Ellipse 3" cx="1.857" cy="1.857" r="1.857" transform="translate(1.857)" fill="#363260"/>
      <path id="Path_6" data-name="Path 6" d="M3.714,10C1.671,10,0,10.836,0,11.857v.929H7.429v-.929C7.429,10.836,5.757,10,3.714,10Z" transform="translate(0 -5.357)" fill="#363260"/>
    </g>
  </g>
</svg>
